<svg width="4" height="16" viewBox="0 0 4 16" fill="none" xmlns="http://www.w3.org/2000/svg">
<path d="M1.78868 9.49515L0.0881525 7.79462C-0.0293842 7.67709 -0.0293842 7.48703 0.0881525 7.37074L0.370741 7.08815C0.488278 6.97062 0.678337 6.97062 0.794623 7.08815L2 8.29353L3.20538 7.08815C3.32291 6.97062 3.51297 6.97062 3.62926 7.08815L3.91185 7.37074C4.02938 7.48828 4.02938 7.67834 3.91185 7.79462L2.21132 9.49515C2.09628 9.61269 1.90622 9.61269 1.78868 9.49515V9.49515Z" fill="#ffffff"/>
</svg>
