<svg width="34" height="34" viewBox="0 0 34 34" fill="none" xmlns="http://www.w3.org/2000/svg">
<path fill-rule="evenodd" clip-rule="evenodd" d="M17 34C26.3888 34 34 26.3888 34 17C34 7.61116 26.3888 0 17 0C7.61116 0 0 7.61116 0 17C0 26.3888 7.61116 34 17 34ZM10.9913 13.5874H11.0155C12.2699 13.5874 13.0511 12.7941 13.0511 11.7922C13.0269 10.7719 12.2699 10 11.0386 10C9.80639 10 9 10.7738 9 11.7952C9 12.797 9.78324 13.5874 10.9913 13.5874ZM22.3382 25.22H26.1224V19.471C26.1224 16.2687 24.259 14.7814 21.8871 14.7814C19.9754 14.7814 18.7775 15.794 18.5559 16.5035V14.8808H14.8068C14.8552 15.7423 14.8068 25.22 14.8068 25.22H18.5559V19.625L18.5555 19.5141V19.5136C18.5539 19.241 18.5524 18.9765 18.6374 18.78C18.8951 18.1582 19.4488 17.5131 20.4445 17.5131C21.7462 17.5131 22.3382 18.4691 22.3382 19.8696V25.22ZM9.43189 14.8805H12.7692V25.2197H9.43189V14.8805Z" fill="#353534"/>
</svg>
