<?xml version="1.0" encoding="utf-8"?>
<svg version="1.1"  xmlns="http://www.w3.org/2000/svg" xmlns:xlink="http://www.w3.org/1999/xlink" x="0px" y="0px"
	 viewBox="0 0 20 20" style="enable-background:new 0 0 20 20;" xml:space="preserve">
<style type="text/css">
	.st0{fill:#FFFFFF;}
</style>
<g>
	<path class="st0" d="M15,14.8L15,14.8C14.8,15,14.8,15,15,14.8C14.8,15,15,14.8,15,14.8z"/>
	<path class="st0" d="M19.7,18.3L16,14.6c1.1-1.6,2-3.4,2-5.6l0,0c0-5-4-9-9-9S0,4,0,9s4,9,9,9c2.1,0,4-0.9,5.6-2l3.7,3.7
		c0.1,0.1,0.4,0.3,0.7,0.3c0.3,0,0.4-0.1,0.7-0.3C20.1,19.3,20.1,18.7,19.7,18.3z M9,16c-3.9,0-7-3.1-7-7.1c0-3.9,3.1-7,7-7
		s7,3.1,7,7l0,0c0,1.9-0.9,3.7-2,4.8l-0.1,0.1l0,0C12.6,15.3,10.9,16,9,16z"/>
</g>
</svg>
